<svg width="45" height="45" viewBox="0 0 45 45" fill="none" xmlns="http://www.w3.org/2000/svg">
<path d="M44.8953 17.3699L44.8958 17.3697L44.8818 17.2513C44.8816 17.2493 44.8815 17.2477 44.8812 17.2457C44.881 17.244 44.8809 17.2424 44.8806 17.2407L44.8284 16.7953C44.8179 16.7058 44.8059 16.6039 44.7923 16.4876L44.7813 16.395L44.759 16.3979C44.2101 13.1919 42.7023 10.1494 40.3669 7.55161C38.0424 4.96625 35.0225 2.92495 31.6336 1.6484C28.7301 0.554663 25.6492 0 22.4771 0C18.1945 0 14.0353 1.03436 10.4493 2.99119C3.53424 6.76442 -0.544061 13.7 0.0587159 20.6605C0.370727 24.2623 1.74473 27.6908 4.03231 30.5757C6.18543 33.291 9.09809 35.4822 12.4552 36.9124C14.5194 37.7917 16.5604 38.2061 18.7214 38.6448L18.9744 38.6963C19.5694 38.8172 19.7294 38.9833 19.7707 39.0491C19.847 39.1713 19.8071 39.4121 19.7764 39.5447C19.7482 39.667 19.7191 39.7891 19.6899 39.9113C19.4579 40.883 19.218 41.8879 19.4064 42.9958C19.6232 44.2694 20.3976 44.9998 21.5312 45C21.5313 45 21.5313 45 21.5315 45C22.7509 45 24.1387 44.16 25.0569 43.6042L25.1796 43.5302C27.3703 42.2089 29.4342 40.7185 30.9874 39.5678C34.3863 37.0494 38.2388 34.1949 41.127 30.5021C44.0354 26.7828 45.4055 22.0034 44.8953 17.3699ZM14.0136 24.4164H10.1314C9.54471 24.4164 9.0691 23.928 9.0691 23.3255V14.957C9.0691 14.3545 9.54471 13.8661 10.1314 13.8661C10.7181 13.8661 11.1937 14.3545 11.1937 14.957V22.2345H14.0135C14.6002 22.2345 15.0758 22.7229 15.0758 23.3255C15.0759 23.928 14.6003 24.4164 14.0136 24.4164ZM18.0635 23.2958C18.0635 23.8983 17.5879 24.3868 17.0013 24.3868C16.4146 24.3868 15.939 23.8983 15.939 23.2958V14.9274C15.939 14.3249 16.4146 13.8365 17.0013 13.8365C17.5879 13.8365 18.0635 14.3249 18.0635 14.9274V23.2958ZM27.6658 23.2958C27.6658 23.7685 27.3694 24.1874 26.9316 24.3335C26.8235 24.3695 26.7129 24.3869 26.6036 24.3869C26.2699 24.3869 25.9476 24.225 25.7438 23.9368L21.9185 18.5263V23.296C21.9185 23.8985 21.4429 24.3869 20.8562 24.3869C20.2695 24.3869 19.7939 23.8985 19.7939 23.296V15.167C19.7939 14.6943 20.0903 14.2754 20.5281 14.1293C20.966 13.9835 21.4454 14.1434 21.7159 14.526L25.5412 19.9365V14.9274C25.5412 14.3249 26.0168 13.8365 26.6035 13.8365C27.1902 13.8365 27.6658 14.3249 27.6658 14.9274V23.2958ZM35.4064 24.215H30.1488C29.5621 24.215 29.0865 23.7266 29.0865 23.1241V18.94V14.7557C29.0865 14.1532 29.5621 13.6647 30.1488 13.6647H35.2433C35.83 13.6647 36.3056 14.1532 36.3056 14.7557C36.3056 15.3582 35.83 15.8466 35.2433 15.8466H31.2111V17.8491H34.4833C35.07 17.8491 35.5456 18.3375 35.5456 18.94C35.5456 19.5426 35.07 20.031 34.4833 20.031H31.2111V22.0332H35.4064C35.9931 22.0332 36.4687 22.5216 36.4687 23.1241C36.4687 23.7266 35.9931 24.215 35.4064 24.215Z" fill="white"/>
</svg>
